module gitlab.com/vyaklushin/dataflow-sample

go 1.19

require github.com/apache/beam/sdks/v2 v2.49.0

require (
	cloud.google.com/go/pubsub v1.32.0
	github.com/ClickHouse/clickhouse-go/v2 v2.13.3
)

require (
	cloud.google.com/go v0.110.2 // indirect
	cloud.google.com/go/bigquery v1.52.0 // indirect
	cloud.google.com/go/compute v1.19.3 // indirect
	cloud.google.com/go/compute/metadata v0.2.3 // indirect
	cloud.google.com/go/iam v1.1.0 // indirect
	cloud.google.com/go/profiler v0.3.1 // indirect
	cloud.google.com/go/storage v1.30.1 // indirect
	github.com/ClickHouse/ch-go v0.58.2 // indirect
	github.com/andybalholm/brotli v1.0.5 // indirect
	github.com/apache/arrow/go/v12 v12.0.0 // indirect
	github.com/apache/thrift v0.16.0 // indirect
	github.com/dustin/go-humanize v1.0.1 // indirect
	github.com/go-faster/city v1.0.1 // indirect
	github.com/go-faster/errors v0.6.1 // indirect
	github.com/goccy/go-json v0.9.11 // indirect
	github.com/golang/groupcache v0.0.0-20210331224755-41bb18bfe9da // indirect
	github.com/golang/protobuf v1.5.3 // indirect
	github.com/golang/snappy v0.0.4 // indirect
	github.com/google/flatbuffers v2.0.8+incompatible // indirect
	github.com/google/go-cmp v0.5.9 // indirect
	github.com/google/pprof v0.0.0-20221103000818-d260c55eee4c // indirect
	github.com/google/s2a-go v0.1.4 // indirect
	github.com/google/uuid v1.3.1 // indirect
	github.com/googleapis/enterprise-certificate-proxy v0.2.5 // indirect
	github.com/googleapis/gax-go/v2 v2.11.0 // indirect
	github.com/klauspost/asmfmt v1.3.2 // indirect
	github.com/klauspost/compress v1.16.7 // indirect
	github.com/klauspost/cpuid/v2 v2.2.4 // indirect
	github.com/minio/asm2plan9s v0.0.0-20200509001527-cdd76441f9d8 // indirect
	github.com/minio/c2goasm v0.0.0-20190812172519-36a3d3bbc4f3 // indirect
	github.com/paulmach/orb v0.10.0 // indirect
	github.com/pierrec/lz4/v4 v4.1.18 // indirect
	github.com/pkg/errors v0.9.1 // indirect
	github.com/segmentio/asm v1.2.0 // indirect
	github.com/shopspring/decimal v1.3.1 // indirect
	github.com/zeebo/xxh3 v1.0.2 // indirect
	go.opencensus.io v0.24.0 // indirect
	go.opentelemetry.io/otel v1.16.0 // indirect
	go.opentelemetry.io/otel/trace v1.16.0 // indirect
	golang.org/x/crypto v0.10.0 // indirect
	golang.org/x/exp v0.0.0-20230510235704-dd950f8aeaea // indirect
	golang.org/x/mod v0.10.0 // indirect
	golang.org/x/net v0.11.0 // indirect
	golang.org/x/oauth2 v0.9.0 // indirect
	golang.org/x/sync v0.3.0 // indirect
	golang.org/x/sys v0.9.0 // indirect
	golang.org/x/text v0.10.0 // indirect
	golang.org/x/tools v0.9.1 // indirect
	golang.org/x/xerrors v0.0.0-20220907171357-04be3eba64a2 // indirect
	google.golang.org/api v0.129.0 // indirect
	google.golang.org/appengine v1.6.7 // indirect
	google.golang.org/genproto v0.0.0-20230530153820-e85fd2cbaebc // indirect
	google.golang.org/genproto/googleapis/api v0.0.0-20230530153820-e85fd2cbaebc // indirect
	google.golang.org/genproto/googleapis/rpc v0.0.0-20230530153820-e85fd2cbaebc // indirect
	google.golang.org/grpc v1.56.1 // indirect
	google.golang.org/protobuf v1.31.0 // indirect
	gopkg.in/retry.v1 v1.0.3 // indirect
	gopkg.in/yaml.v3 v3.0.1 // indirect
)
